# Created on 2018-04-07T09:22:22.550
org.apache.maven.surefire.testset.TestSetFailedException: Suite file /home/mayank/code/mj/ebooks/qa/llsuj/code/05._CrossBrowserTesting/netbeans/cbt_example2/src/test/java/in/mj/cbt/cbtexample1/testng.xml is not a valid file
	at org.apache.maven.surefire.testng.TestNGXmlTestSuite.locateTestSets(TestNGXmlTestSuite.java:99)
	at org.apache.maven.surefire.testng.TestNGProvider.invoke(TestNGProvider.java:119)
	at org.apache.maven.surefire.booter.ForkedBooter.invokeProviderInSameClassLoader(ForkedBooter.java:379)
	at org.apache.maven.surefire.booter.ForkedBooter.runSuitesInProcess(ForkedBooter.java:340)
	at org.apache.maven.surefire.booter.ForkedBooter.execute(ForkedBooter.java:125)
	at org.apache.maven.surefire.booter.ForkedBooter.main(ForkedBooter.java:413)


