<?xml version="1.0" encoding="UTF-8"?>
<testng-results ignored="0" total="2" passed="2" failed="0" skipped="0">
  <reporter-output>
  </reporter-output>
  <suite started-at="2018-04-07T05:02:00Z" name="in.mj.cbt_CBTExample2_Suite" finished-at="2018-04-07T05:02:06Z" duration-ms="5729">
    <groups>
    </groups>
    <test started-at="2018-04-07T05:02:00Z" name="test.java.in.mj.cbt.cbtexample suite" finished-at="2018-04-07T05:02:03Z" duration-ms="2576">
      <class name="test.java.in.mj.cbt.cbtexample.NewEmptyTestNGTest">
        <test-method is-config="true" signature="setUpClass(java.lang.String)[pri:0, instance:test.java.in.mj.cbt.cbtexample.NewEmptyTestNGTest@34a3d150]" started-at="2018-04-07T05:02:00Z" name="setUpClass" finished-at="2018-04-07T05:02:02Z" duration-ms="1239" status="PASS">
          <params>
            <param index="0">
              <value>
                <![CDATA[chrome]]>
              </value>
            </param>
          </params>
          <reporter-output>
          </reporter-output>
        </test-method> <!-- setUpClass -->
        <test-method is-config="true" signature="setUpMethod()[pri:0, instance:test.java.in.mj.cbt.cbtexample.NewEmptyTestNGTest@34a3d150]" started-at="2018-04-07T05:02:02Z" name="setUpMethod" finished-at="2018-04-07T05:02:03Z" duration-ms="1139" status="PASS">
          <reporter-output>
          </reporter-output>
        </test-method> <!-- setUpMethod -->
        <test-method signature="index_email_label()[pri:0, instance:test.java.in.mj.cbt.cbtexample.NewEmptyTestNGTest@34a3d150]" started-at="2018-04-07T05:02:03Z" name="index_email_label" finished-at="2018-04-07T05:02:03Z" duration-ms="53" status="PASS">
          <reporter-output>
          </reporter-output>
        </test-method> <!-- index_email_label -->
        <test-method is-config="true" signature="tearDownMethod()[pri:0, instance:test.java.in.mj.cbt.cbtexample.NewEmptyTestNGTest@34a3d150]" started-at="2018-04-07T05:02:03Z" name="tearDownMethod" finished-at="2018-04-07T05:02:03Z" duration-ms="1" status="PASS">
          <reporter-output>
          </reporter-output>
        </test-method> <!-- tearDownMethod -->
        <test-method is-config="true" signature="tearDownClass()[pri:0, instance:test.java.in.mj.cbt.cbtexample.NewEmptyTestNGTest@34a3d150]" started-at="2018-04-07T05:02:03Z" name="tearDownClass" finished-at="2018-04-07T05:02:03Z" duration-ms="124" status="PASS">
          <reporter-output>
          </reporter-output>
        </test-method> <!-- tearDownClass -->
      </class> <!-- test.java.in.mj.cbt.cbtexample.NewEmptyTestNGTest -->
    </test> <!-- test.java.in.mj.cbt.cbtexample suite -->
    <test started-at="2018-04-07T05:02:03Z" name="test.java.in.mj.cbt.cbtexample firefox" finished-at="2018-04-07T05:02:06Z" duration-ms="3103">
      <class name="test.java.in.mj.cbt.cbtexample.NewEmptyTestNGTest">
        <test-method is-config="true" signature="setUpClass(java.lang.String)[pri:0, instance:test.java.in.mj.cbt.cbtexample.NewEmptyTestNGTest@639c2c1d]" started-at="2018-04-07T05:02:03Z" name="setUpClass" finished-at="2018-04-07T05:02:05Z" duration-ms="1659" status="PASS">
          <params>
            <param index="0">
              <value>
                <![CDATA[opera]]>
              </value>
            </param>
          </params>
          <reporter-output>
          </reporter-output>
        </test-method> <!-- setUpClass -->
        <test-method is-config="true" signature="setUpMethod()[pri:0, instance:test.java.in.mj.cbt.cbtexample.NewEmptyTestNGTest@639c2c1d]" started-at="2018-04-07T05:02:05Z" name="setUpMethod" finished-at="2018-04-07T05:02:06Z" duration-ms="1307" status="PASS">
          <reporter-output>
          </reporter-output>
        </test-method> <!-- setUpMethod -->
        <test-method signature="index_email_label()[pri:0, instance:test.java.in.mj.cbt.cbtexample.NewEmptyTestNGTest@639c2c1d]" started-at="2018-04-07T05:02:06Z" name="index_email_label" finished-at="2018-04-07T05:02:06Z" duration-ms="44" status="PASS">
          <reporter-output>
          </reporter-output>
        </test-method> <!-- index_email_label -->
        <test-method is-config="true" signature="tearDownMethod()[pri:0, instance:test.java.in.mj.cbt.cbtexample.NewEmptyTestNGTest@639c2c1d]" started-at="2018-04-07T05:02:06Z" name="tearDownMethod" finished-at="2018-04-07T05:02:06Z" duration-ms="0" status="PASS">
          <reporter-output>
          </reporter-output>
        </test-method> <!-- tearDownMethod -->
        <test-method is-config="true" signature="tearDownClass()[pri:0, instance:test.java.in.mj.cbt.cbtexample.NewEmptyTestNGTest@639c2c1d]" started-at="2018-04-07T05:02:06Z" name="tearDownClass" finished-at="2018-04-07T05:02:06Z" duration-ms="93" status="PASS">
          <reporter-output>
          </reporter-output>
        </test-method> <!-- tearDownClass -->
      </class> <!-- test.java.in.mj.cbt.cbtexample.NewEmptyTestNGTest -->
    </test> <!-- test.java.in.mj.cbt.cbtexample firefox -->
  </suite> <!-- in.mj.cbt_CBTExample2_Suite -->
</testng-results>
