<?xml version="1.0" encoding="UTF-8"?>
<!DOCTYPE suite SYSTEM "http://testng.org/testng-1.0.dtd">
<suite name="Failed suite [in.mj.cbt_CBTExample2_Suite]" guice-stage="DEVELOPMENT" verbose="0">
  <test thread-count="5" name="test.java.in.mj.cbt.cbtexample opera(failed)" verbose="0">
    <parameter name="browser_type" value="chrome"/>
    <classes>
      <class name="test.java.in.mj.art.sample.PopupPage_Test">
        <methods>
          <include name="validate_ref_text"/>
          <include name="setUpClass"/>
          <include name="tearDownMethod"/>
          <include name="setUpMethod"/>
          <include name="tearDownClass"/>
        </methods>
      </class> <!-- test.java.in.mj.art.sample.PopupPage_Test -->
    </classes>
  </test> <!-- test.java.in.mj.cbt.cbtexample opera(failed) -->
</suite> <!-- Failed suite [in.mj.cbt_CBTExample2_Suite] -->
